Division,WeightClassKg,Place,Name,Team,BodyweightKg,Best3SquatKg,Best3BenchKg,Best3DeadliftKg,TotalKg,Equipment,Event,Sex,BirthDate
Girls,44.23,1,Annabel Rosas,Seagraves,44.18,113.4,47.63,115.67,276.69,Unlimited,SBD,F,
Girls,44.23,2,Jisell Ramirez,Lamesa,44.18,79.38,36.29,90.72,206.38,Unlimited,SBD,F,
Girls,44.23,3,Alondra Tarango,Bovina,44.18,74.84,34.02,95.25,204.12,Unlimited,SBD,F,
Girls,44.23,4,Erin Iglesias,Lamesa,44.18,72.57,31.75,81.65,185.97,Unlimited,SBD,F,
Girls,44.23,5,Naomi Marroquin,Lamesa,41.82,63.5,24.95,77.11,165.56,Unlimited,SBD,F,
Girls,47.85,1,Paola Rodriguez,Lamesa,47.63,92.99,43.09,81.65,217.72,Unlimited,SBD,F,
Girls,47.85,2,Ruth Lozano,Brownfield,47.45,74.84,36.29,97.52,208.65,Unlimited,SBD,F,
Girls,47.85,DQ,Marissa Martinez,Lamesa,47.72,81.65,31.75,,,Unlimited,SBD,F,
Girls,51.94,1,Jocelyn Marroquin,Lamesa,51.07,124.74,63.5,127.01,315.25,Unlimited,SBD,F,
Girls,51.94,2,Shem Gurrea,Brownfield,51.62,106.59,54.43,124.74,285.76,Unlimited,SBD,F,
Girls,51.94,3,Ariel Hernandez,Sundown,49.35,106.59,56.7,113.4,276.69,Unlimited,SBD,F,
Girls,51.94,4,Mercedez Cantu,Seagraves,51.17,97.52,47.63,102.06,247.21,Unlimited,SBD,F,
Girls,51.94,5,Mariah Stephens,Sundown,51.26,97.52,47.63,99.79,244.94,Unlimited,SBD,F,
Girls,51.94,6,Cassidy Reyes,Bovina,48.35,79.38,40.82,111.13,231.33,Unlimited,SBD,F,
Girls,51.94,7,Meriah Gonzales,Brownfield,50.71,68.04,36.29,90.72,195.04,Unlimited,SBD,F,
Girls,51.94,8,Estefanie Magadan,Tahoka,51.89,65.77,29.48,70.31,165.56,Unlimited,SBD,F,
Girls,56.02,1,Micaela Hernandez,Sundown,54.43,136.08,63.5,156.49,356.07,Unlimited,SBD,F,
Girls,56.02,2,Zeriah Gomez,Brownfield,53.07,133.81,58.97,124.74,317.51,Unlimited,SBD,F,
Girls,56.02,3,Paulina Porras,Seagraves,55.79,117.93,47.63,115.67,281.23,Unlimited,SBD,F,
Girls,56.02,4,Jennifer Acosta,Brownfield,53.61,102.06,47.63,122.47,272.16,Unlimited,SBD,F,
Girls,56.02,5,Arianna Morales,Kermit,53.71,79.38,45.36,95.25,219.99,Unlimited,SBD,F,
Girls,56.02,6,Jennifer Lozano,Brownfield,55.61,83.91,45.36,90.72,219.99,Unlimited,SBD,F,
Girls,56.02,7,Yulianna Aranda,Seagraves,55.97,79.38,45.36,90.72,215.46,Unlimited,SBD,F,
Girls,56.02,8,Oriana Garcia,Bovina,54.16,72.57,31.75,97.52,201.85,Unlimited,SBD,F,
Girls,60.1,1,Yudith Aranda,Seagraves,59.87,127.01,77.11,117.93,322.05,Unlimited,SBD,F,
Girls,60.1,2,Ailed De La Cruz,Bovina,58.88,102.06,56.7,127.01,285.76,Unlimited,SBD,F,
Girls,60.1,3,Jaiden Barrera,Lamesa,58.33,104.33,52.16,120.2,276.69,Unlimited,SBD,F,
Girls,60.1,4,Anna Ross,Kermit,58.97,99.79,47.63,90.72,238.14,Unlimited,SBD,F,
Girls,60.1,5,Samantha Miller,Brownfield,58.69,90.72,40.82,97.52,229.06,Unlimited,SBD,F,
Girls,60.1,6,Evelisa Vasquez,Lamesa,56.15,83.91,34.02,81.65,199.58,Unlimited,SBD,F,
Girls,67.36,1,Keely Russell,Kermit,65.86,124.74,61.23,120.2,306.17,Unlimited,SBD,F,
Girls,67.36,2,Angelica Rodriguez,Lamesa,64.5,117.93,61.23,113.4,292.57,Unlimited,SBD,F,
Girls,67.36,3,Anahi Gonzalez,Lamesa,66.68,111.13,65.77,108.86,285.76,Unlimited,SBD,F,
Girls,67.36,4,Samantha Galindo,Lamesa,67.13,113.4,52.16,113.4,278.96,Unlimited,SBD,F,
Girls,67.36,5,Jackline Islas,Kermit,62.41,108.86,61.23,102.06,272.16,Unlimited,SBD,F,
Girls,67.36,6,Teresa Silva,Bovina,66.68,90.72,54.43,102.06,247.21,Unlimited,SBD,F,
Girls,67.36,7,Layla Sepeda,Lamesa,66.5,97.52,38.56,102.06,238.14,Unlimited,SBD,F,
Girls,67.36,8,Yartiza Hernandez,Seagraves,66.59,90.72,38.56,102.06,231.33,Unlimited,SBD,F,
Girls,67.36,9,Sharyce Delgado,Tahoka,66.04,90.72,38.56,,129.27,Unlimited,SB,F,
Girls,75.07,1,Aubree Valenzuela,Brownfield,72.76,158.76,90.72,140.61,390.09,Unlimited,SBD,F,
Girls,75.07,2,Kaylee Alvarado,Brownfield,73.21,124.74,70.31,129.27,324.32,Unlimited,SBD,F,
Girls,75.07,3,Gabby Stice,Tahoka,68.67,92.99,43.09,99.79,235.87,Unlimited,SBD,F,
Girls,75.07,4,M'Kenzie Armendariz,Lamesa,69.76,83.91,31.75,102.06,217.72,Unlimited,SBD,F,
Girls,75.07,DQ,Autum Olivas,Sundown,72.3,117.93,61.23,,,Unlimited,SBD,F,
Girls,75.07,DQ,Talia Acevedo,Sundown,73.03,131.54,61.23,,,Unlimited,SBD,F,
Girls,82.33,1,Mya Romero,Brownfield,77.47,131.54,92.99,124.74,349.27,Unlimited,SBD,F,
Girls,82.33,2,Bridget Reyes,Sundown,75.21,115.67,58.97,122.47,297.1,Unlimited,SBD,F,
Girls,82.33,3,Elizabeth Brown #4,Kermit,81.28,106.59,65.77,77.11,249.48,Unlimited,SBD,F,
Girls,90.04,1,Zimrie Goen,Seagraves,87.91,142.88,90.72,158.76,392.36,Unlimited,SBD,F,
Girls,90.04,2,Sahaira Reyes,Sundown,89.72,151.95,88.45,122.47,362.87,Unlimited,SBD,F,
Girls,90.04,3,Hai'leigh Ramirez,Lamesa,87.72,127.01,61.23,133.81,322.05,Unlimited,SBD,F,
Girls,90.04,4,Alyse Galindo,Lamesa,84.19,113.4,63.5,122.47,299.37,Unlimited,SBD,F,
Girls,90.04,5,Yulissa Vasquez,Bovina,89.9,108.86,56.7,113.4,278.96,Unlimited,SBD,F,
Girls,100.02,1,Neima Martinez,Kermit,97.7,156.49,68.04,131.54,356.07,Unlimited,SBD,F,
Girls,100.02,2,Kassidy Heredia,Kermit,92.17,115.67,63.5,124.74,303.91,Unlimited,SBD,F,
Girls,117.71,1,Jazzmine Williams,Kermit,113.49,113.4,65.77,122.47,301.64,Unlimited,SBD,F,
Girls,117.71,DQ,Annemail Rajang,Lamesa,107.41,158.76,77.11,,,Unlimited,SBD,F,
Girls,117.71+,1,Izabela Amaro,Kermit,121.93,204.12,108.86,156.49,469.47,Unlimited,SBD,F,
