Place,Name,Sex,BirthDate,Age,Equipment,Division,BodyweightKg,WeightClassKg,Squat1Kg,Squat2Kg,Squat3Kg,Best3SquatKg,Bench1Kg,Bench2Kg,Bench3Kg,Best3BenchKg,Deadlift1Kg,Deadlift2Kg,Deadlift3Kg,Deadlift4Kg,Best3DeadliftKg,TotalKg,Event,Country
1,Sammie England,F,1984-03-31,,Sleeves,F-M1-S,70.9,,125,132.5,140,140,72.5,77.5,82.5,82.5,160,167.5,172.5,177.5,172.5,395,SBD,
1,Kerry Howells,F,1971-05-08,,Sleeves,F-M3-S,98.85,,-137.5,-137.5,137.5,137.5,80,-85,-85,80,157.5,167.5,-177.5,,167.5,385,SBD,
1,Deborah Curram,F,1962-06-26,,Sleeves,F-M5-S,66.7,,57.5,62.5,-67.5,62.5,35,40,-44,40,92.5,100,-102.5,,100,202.5,SBD,
1,Nael Tassabehji,M,1980-09-17,,Wraps,M-M1,74.95,,230,246,-250,246,110,120,-130,120,230,250,-255,-255,250,616,SBD,
1,Toubal Fatah,M,1983-09-11,,Wraps,M-M1,89.6,,290,320,330,330,175,185,-190,185,280,300,-315,,300,815,SBD,
2,Tyrone Jones,M,,40,Wraps,M-M1,89.6,,240,265,-275,265,125,145,-150,145,245,265,280,,280,690,SBD,
3,Gavin Cronin,M,1981-10-16,,Wraps,M-M1,87.5,,170,185,-200,185,120,125,130,130,170,185,-200,,185,500,SBD,
1,Tom Taylor #1,M,1982-12-31,,Wraps,M-M1,97.55,,235,255,265,265,115,122.5,-127.5,122.5,230,255,262.5,,262.5,650,SBD,
1,Paul Ashford,M,1984-01-10,,Wraps,M-M1,104.85,,270,290,305,305,150,160,-170,160,260,280,-292.5,,280,745,SBD,
2,Neil Gren,M,1981-01-19,,Wraps,M-M1,109.2,,230,240,250,250,150,160,-165,160,260,270,280,,280,690,SBD,Scotland
1,Mark Caroli,M,1981-12-06,,Sleeves,M-M1-S,119.9,,200,210,220,220,157.5,165,-170,165,255,265,275,,275,660,SBD,
2,David Bendle,M,1983-07-21,,Sleeves,M-M1-S,119.95,,220,235,245,245,150,160,-170,160,210,225,235,,235,640,SBD,
1,Richard Cooling,M,1984-01-23,,Wraps,M-M1,136.55,,300,-315,315,315,157.5,-165,165,165,300,320,-330.5,,320,800,SBD,
1,Paul Coates,M,1978-11-09,,Wraps,M-M2,96.2,,255,-275,275,275,160,170,177.5,177.5,275,290,295,,295,747.5,SBD,
2,Keith Evans #1,M,1978-03-04,,Sleeves,M-M2-S,99.85,,220,230,240,240,160,170,180,180,-240,-240,240,,240,660,SBD,
1,Terence Adams,M,1950-03-28,,Wraps,M-M7,81.85,,100,105,110,110,80,-87.5,87.5,87.5,130,140,-150,,140,337.5,SBD,
DQ,Ryan Godding,M,,40,Multi-ply,M-M1-E,97.65,,-330,-330,-330,,,,,,,,,,,,SBD,
1,Gavin Rowlands,M,1978-08-30,,Multi-ply,M-M2-E,108.65,,260,280,290,290,165,-175,175,175,205,215,230,,230,695,SBD,
1,András Csiszár,M,1973-03-15,,Multi-ply,M-M3-E,89.65,,180,200,230,230,160,175,180,180,-180,200,-230,,200,610,SBD,Hungary
1,Robert Graham #1,M,1965-06-15,,Multi-ply,M-M4-E,105.15,,260,280,300,300,180,190,-200,190,220,230,240,,240,730,SBD,
1,Brad Culverwell,M,1958-01-19,,Multi-ply,M-M6-E,87.2,,-165,165,185,185,75,-82.5,82.5,82.5,190,212.5,-225,,212.5,480,SBD,
1,Gábor Somogyi #2,M,1980-06-09,,Bare,M-M1,116.45,,,,,,175,182.5,190,190,,,,,,190,B,Hungary
1,Jan Puhlovsky,M,1978-04-05,,Bare,M-M2,124.95,,,,,,180,190,192.5,192.5,,,,,,192.5,B,
1,Piotr Strzała,M,1966-03-11,,Bare,M-M4,107.75,,,,,,175,185,195,195,,,,,,195,B,Scotland
1,Chris Apark,M,1966-05-13,,Bare,M-M4,136.6,,,,,,110,120,125,125,,,,,,125,B,
DQ,Sean Blackburn,M,,,Multi-ply,M-M4-E,107.65,,,,,,-237.5,-237.5,-237.5,,,,,,,,B,
1,Mark Woodruff,M,1978-09-23,,Bare,M-M2,,,,,,,,,,,240,260,,,260,260,D,
