Division,WeightClassKg,Place,Name,Team,BodyweightKg,Best3SquatKg,Best3BenchKg,Best3DeadliftKg,TotalKg,Equipment,Event,Sex,BirthDate
Girls,44.23,1,Jacelyn Thornton,Cumby,41.19,117.93,56.7,117.93,292.57,Single-ply,SBD,F,
Girls,44.23,2,Lillia Pruitt,Callisburg,43.82,97.52,49.9,83.91,231.33,Single-ply,SBD,F,
Girls,44.23,3,Sally Green,Greenville,44.09,92.99,34.02,102.06,229.06,Single-ply,SBD,F,
Girls,44.23,4,Yese Stricklin,Leonard,42,83.91,56.7,81.65,222.26,Single-ply,SBD,F,
Girls,44.23,5,Lauren Tran,Mount Vernon,43.73,81.65,40.82,99.79,222.26,Single-ply,SBD,F,
Girls,44.23,6,Crystal Padron,Quinlan Ford,43.09,99.79,40.82,79.38,219.99,Single-ply,SBD,F,
Girls,44.23,7,Jasmine Reyes,Anna,43.36,83.91,38.56,83.91,206.38,Single-ply,SBD,F,
Girls,44.23,8,Toyanna Harris,Commerce,40.28,70.31,36.29,92.99,199.58,Single-ply,SBD,F,
Girls,44.23,9,Emily Palmer,Leonard,43.18,74.84,43.09,74.84,192.78,Single-ply,SBD,F,
Girls,44.23,10,Shelby Stickley,Wolfe City,42.82,68.04,38.56,54.43,161.03,Single-ply,SBD,F,
Girls,44.23,11,Layla Carter,Greenville,39.01,61.23,20.41,61.23,142.88,Single-ply,SBD,F,
Girls,47.85,1,Katelynn Wagner,Melissa,45.72,102.06,45.36,92.99,240.4,Single-ply,SBD,F,
Girls,47.85,2,Caleigh Cummings,Celeste,47.26,90.72,54.43,92.99,238.14,Single-ply,SBD,F,
Girls,47.85,3,Madison Vaughn,Leonard,47.17,88.45,47.63,95.25,231.33,Single-ply,SBD,F,
Girls,47.85,4,Myah Soza,Nevada Community,45.63,97.52,34.02,88.45,219.99,Single-ply,SBD,F,
Girls,47.85,5,Rosa Jaresh,Sadler S & S Cons,46.72,95.25,43.09,81.65,219.99,Single-ply,SBD,F,
Girls,47.85,6,Jennifer Sanchez,Quinlan Ford,47.08,83.91,29.48,90.72,204.12,Single-ply,SBD,F,
Girls,47.85,DQ,Myranda Johnson,Paris North Lamar,44.81,,,,,Single-ply,SBD,F,
Girls,47.85,DQ,Alexa Morones,Wills Point,47.63,102.06,,,,Single-ply,SBD,F,
Girls,51.94,1,Vicky Aragon-Marcial,Anna,50.44,154.22,102.06,140.61,396.89,Single-ply,SBD,F,
Girls,51.94,2,Brooke Daniel,Nevada Community,51.44,113.4,61.23,111.13,285.76,Single-ply,SBD,F,
Girls,51.94,3,Peyton Saulters,Nevada Community,48.99,120.2,47.63,104.33,272.16,Single-ply,SBD,F,
Girls,51.94,4,Haven Benge,Ore City,49.62,108.86,45.36,111.13,265.35,Single-ply,SBD,F,
Girls,51.94,5,Chandler Gray,Melissa,50.98,113.4,49.9,99.79,263.08,Single-ply,SBD,F,
Girls,51.94,6,Lexxi Mayes,Paris North Lamar,51.44,95.25,54.43,111.13,260.82,Single-ply,SBD,F,
Girls,51.94,7,Ivie Allmon,Paris North Lamar,51.62,102.06,58.97,99.79,260.82,Single-ply,SBD,F,
Girls,51.94,8,Litzi Juarez,Whitesboro,50.98,95.25,52.16,97.52,244.94,Single-ply,SBD,F,
Girls,51.94,9,Hayley Morgan,Sadler S & S Cons,51.07,97.52,47.63,97.52,242.67,Single-ply,SBD,F,
Girls,51.94,10,Vanessa Aguilar,Mount Vernon,49.26,102.06,40.82,97.52,240.4,Single-ply,SBD,F,
Girls,51.94,11,Sara Westbrook,Leonard,50.17,90.72,54.43,95.25,240.4,Single-ply,SBD,F,
Girls,51.94,12,Jaden Buchanan #1,Commerce,49.9,104.33,36.29,92.99,233.6,Single-ply,SBD,F,
Girls,51.94,13,Kasie Burk,Nevada Community,50.71,88.45,40.82,99.79,229.06,Single-ply,SBD,F,
Girls,51.94,14,Allie Charles,Honey Grove,51.17,90.72,34.02,99.79,224.53,Single-ply,SBD,F,
Girls,51.94,15,Alondra Yanes,Quinlan Ford,49.44,79.38,34.02,88.45,201.85,Single-ply,SBD,F,
Girls,51.94,16,Abigail Colvert,Wolfe City,51.44,61.23,38.56,72.57,172.37,Single-ply,SBD,F,
Girls,51.94,DQ,Julie Quintana,Whitesboro,49.9,70.31,43.09,,,Single-ply,SBD,F,
Girls,56.02,1,Jenna King,Whitesboro,55.34,136.08,63.5,136.08,335.66,Single-ply,SBD,F,
Girls,56.02,2,Korina Wallace,Leonard,55.07,124.74,81.65,122.47,328.85,Single-ply,SBD,F,
Girls,56.02,3,Kamry Oliver,Paris North Lamar,54.7,129.27,61.23,136.08,326.59,Single-ply,SBD,F,
Girls,56.02,4,Raegan Knight,Melissa,53.07,115.67,83.91,120.2,319.78,Single-ply,SBD,F,
Girls,56.02,5,Ella Branson,Melissa,54.43,127.01,65.77,124.74,317.51,Single-ply,SBD,F,
Girls,56.02,6,Isabela Vizcaya,Cumby,53.71,120.2,63.5,120.2,303.91,Single-ply,SBD,F,
Girls,56.02,7,Emaly Sneed,Pattonville Prairiland,54.43,106.59,72.57,124.74,303.91,Single-ply,SBD,F,
Girls,56.02,8,Elena Garza,Leonard,55.16,117.93,61.23,115.67,294.84,Single-ply,SBD,F,
Girls,56.02,9,Kaylee King,Wills Point,54.52,106.59,54.43,111.13,272.16,Single-ply,SBD,F,
Girls,56.02,10,Kira Phillips,Whitesboro,52.98,102.06,56.7,108.86,267.62,Single-ply,SBD,F,
Girls,56.02,11,Phoebe Attaway,Farmersville,54.79,120.2,49.9,92.99,263.08,Single-ply,SBD,F,
Girls,56.02,12,Sara Henry,Bonham,54.52,99.79,61.23,99.79,260.82,Single-ply,SBD,F,
Girls,56.02,13,Alana Grady,Anna,54.7,102.06,45.36,111.13,258.55,Single-ply,SBD,F,
Girls,56.02,14,Ayanna Arellano,Cumby,55.97,95.25,52.16,88.45,235.87,Single-ply,SBD,F,
Girls,56.02,15,Savine Valenzuela,Sadler S & S Cons,52.34,97.52,43.09,83.91,224.53,Single-ply,SBD,F,
Girls,56.02,16,Jackie Garcia,Nevada Community,54.61,92.99,36.29,95.25,224.53,Single-ply,SBD,F,
Girls,56.02,17,Alexandra Martinez,Mount Pleasant,53.34,83.91,38.56,95.25,217.72,Single-ply,SBD,F,
Girls,56.02,18,Madyson Holbrook,Quinlan Ford,55.43,63.5,31.75,68.04,163.29,Single-ply,SBD,F,
Girls,60.1,1,Shay Smith #1,Mount Vernon,57.24,131.54,61.23,149.69,342.46,Single-ply,SBD,F,
Girls,60.1,2,Meredith Williams,Greenville,56.79,124.74,61.23,129.27,315.25,Single-ply,SBD,F,
Girls,60.1,3,Hermayonie Dominguez,Whitesboro,58.33,115.67,54.43,138.35,308.44,Single-ply,SBD,F,
Girls,60.1,4,Trichelle Meador,Quinlan Ford,59.33,122.47,58.97,127.01,308.44,Single-ply,SBD,F,
Girls,60.1,5,Constance Smith,Cumby,58.88,131.54,52.16,122.47,306.17,Single-ply,SBD,F,
Girls,60.1,6,Krista Smith,Melissa,59.6,122.47,68.04,113.4,303.91,Single-ply,SBD,F,
Girls,60.1,7,Mya Wilson,Commerce,56.61,111.13,54.43,133.81,299.37,Single-ply,SBD,F,
Girls,60.1,8,Mattie Willingham,Nevada Community,59.33,124.74,58.97,113.4,297.1,Single-ply,SBD,F,
Girls,60.1,9,Hannah Griffin,Van Alstyne,58.33,111.13,54.43,117.93,283.5,Single-ply,SBD,F,
Girls,60.1,10,Mariska de Bruijn,Mount Vernon,60.06,102.06,49.9,117.93,269.89,Single-ply,SBD,F,
Girls,60.1,11,Addyson Lamb,Sulphur Springs,56.52,111.13,45.36,108.86,265.35,Single-ply,SBD,F,
Girls,60.1,12,Lexie Eudy,Leonard,59.69,97.52,54.43,102.06,254.01,Single-ply,SBD,F,
Girls,60.1,13,Kadyn King,Melissa,58.51,97.52,52.16,97.52,247.21,Single-ply,SBD,F,
Girls,60.1,14,Alexis Jandrew,Wills Point,58.29,97.52,45.36,102.06,244.94,Single-ply,SBD,F,
Girls,60.1,15,Abbie Schnakenberg,Sadler S & S Cons,57.06,90.72,45.36,104.33,240.4,Single-ply,SBD,F,
Girls,60.1,16,Saray Villa,Quinlan Ford,58.79,90.72,36.29,113.4,240.4,Single-ply,SBD,F,
Girls,60.1,17,Ryleigh Lewis,Mount Vernon,57.24,92.99,40.82,102.06,235.87,Single-ply,SBD,F,
Girls,60.1,18,Melissa Martinez,Quinlan Ford,59.78,88.45,38.56,99.79,226.8,Single-ply,SBD,F,
Girls,60.1,19,Tyler Fenley,Sadler S & S Cons,56.88,83.91,34.02,97.52,215.46,Single-ply,SBD,F,
Girls,60.1,20,Delaney Romero,Quinlan Ford,59.51,81.65,36.29,97.52,215.46,Single-ply,SBD,F,
Girls,60.1,21,Jenna Buchanan,Commerce,57.61,81.65,43.09,88.45,213.19,Single-ply,SBD,F,
Girls,60.1,22,Alexis Smith,Wills Point,57.97,83.91,36.29,88.45,208.65,Single-ply,SBD,F,
Girls,60.1,23,Emilee Wells,Sadler S & S Cons,58.79,81.65,40.82,81.65,204.12,Single-ply,SBD,F,
Girls,60.1,24,Fionna Stewart,Wolfe City,59.96,79.38,45.36,74.84,199.58,Single-ply,SBD,F,
Girls,67.36,1,Katelynn Fuller,Lone Oak,64.14,174.63,70.31,149.69,394.63,Single-ply,SBD,F,
Girls,67.36,2,Cassandra Arroyo,Nevada Community,63.14,156.49,77.11,138.35,371.95,Single-ply,SBD,F,
Girls,67.36,3,Brianna McGee,Melissa,64.68,140.61,65.77,131.54,337.93,Single-ply,SBD,F,
Girls,67.36,4,Nakita Harris,Leonard,65.23,131.54,70.31,136.08,337.93,Single-ply,SBD,F,
Girls,67.36,5,Angie Yanez,Nevada Community,65.14,142.88,70.31,122.47,335.66,Single-ply,SBD,F,
Girls,67.36,6,Arleen Depich,Commerce,66.22,145.15,58.97,124.74,328.85,Single-ply,SBD,F,
Girls,67.36,7,Skyler Brannan,Whitesboro,63.68,120.2,65.77,122.47,308.44,Single-ply,SBD,F,
Girls,67.36,8,Lexi Smith,Pattonville Prairiland,65.23,120.2,63.5,124.74,308.44,Single-ply,SBD,F,
Girls,67.36,9,Rynn Gamblin,Mount Vernon,61.51,122.47,58.97,108.86,290.3,Single-ply,SBD,F,
Girls,67.36,10,Abby Velten,Whitesboro,61.78,106.59,65.77,111.13,283.5,Single-ply,SBD,F,
Girls,67.36,11,Holly Summers,Greenville,64.41,108.86,58.97,113.4,281.23,Single-ply,SBD,F,
Girls,67.36,12,Jenna Cook,Mount Pleasant,65.32,106.59,47.63,106.59,260.82,Single-ply,SBD,F,
Girls,67.36,13,Laura Sanchez,Mount Pleasant,61.87,104.33,43.09,108.86,256.28,Single-ply,SBD,F,
Girls,67.36,14,Honesty Bridges,Commerce,61.14,108.86,38.56,106.59,254.01,Single-ply,SBD,F,
Girls,67.36,15,Kelcie Fite,Cumby,63.68,102.06,52.16,97.52,251.74,Single-ply,SBD,F,
Girls,67.36,16,Rory Young,Sulphur Springs,65.68,97.52,47.63,104.33,249.48,Single-ply,SBD,F,
Girls,67.36,17,Lexi Taylor,Wills Point,62.14,86.18,47.63,106.59,240.4,Single-ply,SBD,F,
Girls,67.36,18,Kendall Anderson,Wolfe City,67.31,97.52,52.16,88.45,238.14,Single-ply,SBD,F,
Girls,67.36,19,Hailee Pingitore,Mount Vernon,61.33,92.99,40.82,102.06,235.87,Single-ply,SBD,F,
Girls,67.36,20,Alexandra Meek,Honey Grove,65.32,86.18,40.82,90.72,217.72,Single-ply,SBD,F,
Girls,67.36,21,Bailey Stevens,Wolfe City,67.04,79.38,52.16,86.18,217.72,Single-ply,SBD,F,
Girls,67.36,22,Faith Pachter,Wolfe City,67.22,79.38,45.36,92.99,217.72,Single-ply,SBD,F,
Girls,67.36,23,Maddie Marosek,Nevada Community,63.78,79.38,31.75,90.72,201.85,Single-ply,SBD,F,
Girls,67.36,24,Kylee Lewis,Sadler S & S Cons,63.96,83.91,40.82,72.57,197.31,Single-ply,SBD,F,
Girls,67.36,25,Karen Uribe,Honey Grove,63.32,72.57,24.95,86.18,183.7,Single-ply,SBD,F,
Girls,67.36,DQ,Jennifer Esch,Pattonville Prairiland,63.14,,,,,Single-ply,SBD,F,
Girls,67.36,DQ,Halie Mahoney,Quinlan Boles,67.31,77.11,,,,Single-ply,SBD,F,
Girls,67.36,DQ,Delanie Hamilton,Anna,66.13,111.13,,,,Single-ply,SBD,F,
Girls,75.07,1,Sable Erdmier,Sulphur Springs,72.12,149.69,61.23,163.29,374.21,Single-ply,SBD,F,
Girls,75.07,2,Hannah Titlow,Paris North Lamar,69.31,133.81,77.11,140.61,351.53,Single-ply,SBD,F,
Girls,75.07,3,Kaitlin Burrell,Mineola,68.86,149.69,54.43,142.88,347,Single-ply,SBD,F,
Girls,75.07,4,McKena Jensen,Van Alstyne,74.12,136.08,61.23,127.01,324.32,Single-ply,SBD,F,
Girls,75.07,5,Cori Jordan,Celeste,70.31,124.74,63.5,133.81,322.05,Single-ply,SBD,F,
Girls,75.07,6,Lauren Brown #3,Sadler S & S Cons,73.66,131.54,49.9,136.08,317.51,Single-ply,SBD,F,
Girls,75.07,7,Jade Williams,Anna,74.12,131.54,52.16,131.54,315.25,Single-ply,SBD,F,
Girls,75.07,8,Brenley Sadler,Leonard,68.31,104.33,58.97,122.47,285.76,Single-ply,SBD,F,
Girls,75.07,9,Brynnah Adams,Callisburg,68.67,108.86,45.36,127.01,281.23,Single-ply,SBD,F,
Girls,75.07,10,Emily Gabel,Omaha Pewitt,69.31,113.4,52.16,113.4,278.96,Single-ply,SBD,F,
Girls,75.07,11,Breann Mulcahy,Commerce,69.49,113.4,52.16,113.4,278.96,Single-ply,SBD,F,
Girls,75.07,12,Twyla Hayes,Wills Point,69.22,90.72,65.77,115.67,272.16,Single-ply,SBD,F,
Girls,75.07,13,Za'Tayvia Hayes,Honey Grove,68.31,90.72,54.43,108.86,254.01,Single-ply,SBD,F,
Girls,75.07,14,Trinity Hart,Quinlan Ford,71.12,90.72,49.9,113.4,254.01,Single-ply,SBD,F,
Girls,75.07,15,Hannah Lynn,Whitesboro,68.76,102.06,52.16,97.52,251.74,Single-ply,SBD,F,
Girls,75.07,16,Emma Parr,Quinlan Ford,70.4,95.25,38.56,97.52,231.33,Single-ply,SBD,F,
Girls,75.07,17,Ella Folks,Lone Oak,71.49,95.25,40.82,92.99,229.06,Single-ply,SBD,F,
Girls,75.07,DQ,Jamie Neel,Sadler S & S Cons,70.13,,,,,Single-ply,SBD,F,
Girls,75.07,DQ,Irma Garza,Pattonville Prairiland,67.59,,,,,Single-ply,SBD,F,
Girls,75.07,DQ,Ainsley Schraeder,Melissa,70.4,113.4,,,,Single-ply,SBD,F,
Girls,82.33,1,Keely Clark,Callisburg,81.92,149.69,86.18,140.61,376.48,Single-ply,SBD,F,
Girls,82.33,2,Katherine Palstring,Commerce,78.02,161.03,72.57,124.74,358.34,Single-ply,SBD,F,
Girls,82.33,3,Elajah Fugitt,Commerce,75.75,136.08,49.9,136.08,322.05,Single-ply,SBD,F,
Girls,82.33,4,Rebekah Burton,Quinlan Ford,79.74,77.11,38.56,83.91,199.58,Single-ply,SBD,F,
Girls,82.33,DQ,Miranda Munoz,Quinlan Boles,76.84,104.33,,,,Single-ply,SBD,F,
Girls,82.33,DQ,Vanessa De Jesus,Farmersville,76.2,163.29,,,,Single-ply,SBD,F,
Girls,90.04,1,Izzy Tresca,Mineola,87,181.44,65.77,136.08,383.29,Single-ply,SBD,F,
Girls,90.04,2,Kayley Rohrbough,Callisburg,87.63,145.15,68.04,145.15,358.34,Single-ply,SBD,F,
Girls,90.04,3,Janessa Crawford,Van Alstyne,84.73,138.35,61.23,142.88,342.46,Single-ply,SBD,F,
Girls,90.04,4,Cagen Burkard,Bonham,88.36,142.88,79.38,120.2,342.46,Single-ply,SBD,F,
Girls,90.04,5,Brandy Rangel,Wills Point,87.82,108.86,54.43,115.67,278.96,Single-ply,SBD,F,
Girls,90.04,6,Alondra Martinez #1,Wills Point,86.91,102.06,52.16,122.47,276.69,Single-ply,SBD,F,
Girls,90.04,7,MaKinna Sanders,Wolfe City,83.55,102.06,52.16,97.52,251.74,Single-ply,SBD,F,
Girls,90.04,8,Cierra Glenn,Callisburg,83.28,95.25,49.9,102.06,247.21,Single-ply,SBD,F,
Girls,90.04,9,Emma Conner,Mount Vernon,86.45,79.38,45.36,86.18,210.92,Single-ply,SBD,F,
Girls,90.04,10,Julianne Smith,Quinlan Boles,87.32,65.77,45.36,63.5,174.63,Single-ply,SBD,F,
Girls,90.04,DQ,Natalia Sandoval,Farmersville,87.72,138.35,63.5,,,Single-ply,SBD,F,
Girls,100.02,1,Jacie Doyle,Leonard,98.79,170.1,95.25,145.15,410.5,Single-ply,SBD,F,
Girls,100.02,2,Jessica Saulters,Lone Oak,97.52,181.44,92.99,129.27,403.7,Single-ply,SBD,F,
Girls,100.02,3,Angela Hernández,Quinlan Ford,99.88,188.24,72.57,136.08,396.89,Single-ply,SBD,F,
Girls,100.02,4,Shannon Pel,Commerce,99.16,138.35,72.57,142.88,353.8,Single-ply,SBD,F,
Girls,100.02,5,Madeleine-Rose Garcia,Wills Point,94.8,138.35,63.5,115.67,317.51,Single-ply,SBD,F,
Girls,100.02,6,Mauricia Arrington,Commerce,97.52,127.01,47.63,106.59,281.23,Single-ply,SBD,F,
Girls,117.71,1,Kayle Chapman,Leonard,108.32,181.44,97.52,142.88,421.84,Single-ply,SBD,F,
Girls,117.71,2,Amber Burrow,Mount Vernon,101.6,174.63,72.57,172.37,419.57,Single-ply,SBD,F,
Girls,117.71,3,Destiny Barron,Mount Vernon,112.94,170.1,58.97,163.29,392.36,Single-ply,SBD,F,
Girls,117.71+,1,Avery Crossland,Leonard,120.66,206.38,117.93,172.37,496.68,Single-ply,SBD,F,
