Place,Name,BirthDate,Sex,BirthYear,Age,Country,State,Equipment,Division,BodyweightKg,WeightClassKg,Squat1Kg,Squat2Kg,Squat3Kg,Best3SquatKg,Squat4Kg,Bench1Kg,Bench2Kg,Bench3Kg,Best3BenchKg,Bench4Kg,Deadlift1Kg,Deadlift2Kg,Deadlift3Kg,Best3DeadliftKg,Deadlift4Kg,TotalKg,Event
1,Olea MacDonald,,F,2006,17,,MO,Raw,J16-17,67,67.5,80,-85,85,85,,-47.5,-47.5,47.5,47.5,,92.5,-97.5,108,108,,240.5,SBD
1,Olivia Meador,,F,2006,17,,KS,Raw,J16-17,82.2,82.5,92.5,100,-115.5,100,,72.5,-77.5,77.5,77.5,,132.5,142.5,-147.5,142.5,,320,SBD
1,Olivia Mooradian,,F,2004,20,,KS,Raw,J20-23,73.8,75,97.5,107.5,112.5,112.5,,60,65,-70,65,,142.5,152.5,-160,152.5,,330,SBD
1,Nicole Cochran,,F,1978,45,,KS,Raw,M45-49,71,75,67.5,-75,-75,67.5,,32.5,40,42.5,42.5,,70,77.5,87.5,87.5,,197.5,SBD
1,Chelsy Obrer,,F,1995,28,,KS,Raw,Open,55.8,56,110,115,-120,115,,55,-57.5,-57.5,55,,137.5,145,-147.5,145,,315,SBD
1,Natalie Nickels,,F,1998,25,,KS,Raw,Open,58.1,60,102.5,-107.5,-107.5,102.5,,47.5,52.5,-57.5,52.5,,117.5,122.5,125,125,,280,SBD
1,Krista Deffenbaugh,,F,1996,27,,KS,Raw,Open,65.8,67.5,105,110,-115,110,,62.5,65,70,70,,115,122.5,130,130,,310,SBD
2,Molly Galbrecht,,F,1993,31,,MO,Raw,Open,66.1745,67.5,105,115,117.5,117.5,,55,57.5,60,60,,120,125,127.5,127.5,,305,SBD
1,Traci Mills,,F,1996,28,,KS,Raw,Open,74.3,75,152.5,165,167.5,167.5,,72.5,77.5,82.5,82.5,,187.5,-200,200,200,,450,SBD
2,Savannah Shields,,F,1995,28,,MO,Raw,Open,73.5,75,140,147.5,152.5,152.5,,80,82.5,-85,82.5,,157.5,-165,165,165,,400,SBD
3,Amanda Cosgriff,,F,2000,24,,MO,Raw,Open,69.5,75,117.5,125,127.5,127.5,,67.5,72.5,-75,72.5,,152.5,162.5,-165,162.5,,362.5,SBD
4,Tatyana Fastovskaya,,F,1991,32,,KS,Raw,Open,74.5,75,110,117.5,120,120,,60,65,-67.5,65,,152.5,167.5,-172.5,167.5,,352.5,SBD
5,Hailey Bolton,,F,1995,28,,KS,Raw,Open,69.2,75,105,115,125,125,,55,60,65,65,,127.5,137.5,142.5,142.5,,332.5,SBD
1,Rebecca Chermok,,F,1981,43,,KS,Wraps,M40-44,88.4,90,160,165,170,170,,75,85,-92.5,85,,167.5,180,185,185,,440,SBD
1,Rebecca Chermok,,F,1981,43,,KS,Wraps,Open,88.4,90,160,165,170,170,,75,85,-92.5,85,,167.5,180,185,185,,440,SBD
1,Christopher Powers,,M,2009,14,,KS,Raw,J13-15,50,52,-95,97.5,105,105,,67.5,75,77.5,77.5,,125,140,145,145,,327.5,SBD
1,Kellen McGuire,,M,2007,17,,KS,Raw,J16-17,66.1,67.5,107.5,115,122.5,122.5,,62.5,72.5,-75,72.5,,150,162.5,175,175,,370,SBD
1,Julian McGivern,,M,2007,17,,KS,Raw,J16-17,82.3,82.5,172.5,185,197.5,197.5,,90,100,107.5,107.5,,155,172.5,187.5,187.5,,492.5,SBD
1,Maxwell Fisher,,M,2007,17,,KS,Raw,J16-17,97.1,100,150,-160,165,165,,112.5,120,127.5,127.5,,-165,177.5,-195,177.5,,470,SBD
1,Lincoln Cosby,,M,2006,18,,NE,Raw,J18-19,80.2,82.5,187.5,197.5,-202.5,197.5,,102.5,107.5,110,110,,227.5,245,-252.5,245,,552.5,SBD
2,Dylan Sapp,,M,2006,18,,KS,Raw,J18-19,79.4,82.5,190,202.5,-212.5,202.5,,120,127.5,-137.5,127.5,,200,220,-227.5,220,,550,SBD
1,Clark Luke,,M,2005,18,,NE,Raw,J18-19,89.1,90,142.5,150,160,160,,-87.5,92.5,-100,92.5,,182.5,197.5,205,205,,457.5,SBD
1,Lucas Thomas,,M,2005,18,,KS,Raw,J18-19,99.5,100,185,197.5,-205,197.5,,112.5,117.5,-122.5,117.5,,220,235,247.5,247.5,,562.5,SBD
1,Christian Kotwitz,,M,2004,20,,KS,Raw,J20-23,89.5,90,190,-210,210,210,,112.5,120,122.5,122.5,,-232.5,240,-252.5,240,,572.5,SBD
2,Tanner Green,,M,2001,23,,NE,Raw,J20-23,85.2,90,172.5,182.5,190,190,,107.5,115,120,120,,187.5,205,215,215,,525,SBD
1,Parker Boyce,,M,2001,23,,MO,Raw,J20-23,98.9,100,215,230,237.5,237.5,,150,160,170,170,,237.5,250,262.5,262.5,,670,SBD
2,Sean Dillon,,M,2001,22,,MO,Raw,J20-23,97.6,100,220,227.5,235,235,,145,147.5,-150,147.5,,265,275,-285,275,,657.5,SBD
1,Benson Cessna,,M,1982,42,,KS,Raw,M40-44,112.9,125,195,213,217.5,217.5,,105,-110,110,110,,200,212.5,-230,212.5,,540,SBD
1,Michael Hernandez #1,,M,1958,65,,KS,Raw,M65-69,110,110,145,-162.5,162.5,162.5,,72.5,80,85,85,,200,220,227.5,227.5,,475,SBD
1,Shea Crum,,M,1996,28,,KS,Raw,Open,81.4,82.5,230,-240,240,240,,140,148,-152.5,148,,260,-267.5,272.5,272.5,,660.5,SBD
2,Brett Carter,,M,1988,36,,IA,Raw,Open,81.9,82.5,195,210.5,220,220,,117.5,125,-127.5,125,,235.5,252.5,-260,252.5,,597.5,SBD
3,Dylan Hawkins,,M,1998,25,,MO,Raw,Open,82.2,82.5,170,182.5,195,195,,100,110,-115,110,,200,215,227.5,227.5,,532.5,SBD
DQ,Mordecai Sutcliffe,,M,1996,28,,IA,Raw,Open,81.1,82.5,220,-230,-230,220,,125,132.5,137.5,137.5,,-235,-235,-235,,,,SBD
1,Decker Starr,,M,2002,22,,MO,Raw,Open,89.2,90,230,250,260,260,,137.5,145,155,155,,230,260,275,275,,690,SBD
1,Dakota Britt,,M,1995,29,,KS,Raw,Open,97.7,100,-207.5,207.5,222.5,222.5,,140,-150,-150,140,,195,207.5,215,215,,577.5,SBD
1,Adonis Stanwix,,M,1999,24,,KS,Raw,Open,117.8,125,267.5,275,280,280,,197.5,-200,200,200,,280,295,-310,295,,775,SBD
2,Joel Reft,,M,1996,28,,MO,Raw,Open,114.6,125,272.5,280,,280,,142.5,-147.5,147.5,147.5,,295,310,322.5,322.5,,750,SBD
1,Tyler Ernst,,M,1990,34,,MO,Raw,Open,129.6,140,260,275,-285,275,,170,,,170,,295,310,320,320,,765,SBD
DQ,Josh Wise,,M,1986,37,,MO,Raw,S35-39,88.4,90,-162.5,-167.5,-170,,,120,125,-127.5,125,,165,-170,172.5,172.5,,,SBD
1,Chris Wheeler,,M,1984,39,,MO,Raw,S35-39,106.5,110,120,125,130,130,,97.5,102.5,-105,102.5,,120,130,137.5,137.5,,370,SBD
1,Jakson Guimbellot-Brundies,,M,2007,16,,KS,Raw,J16-17,84.9,90,,,,,,125,132.5,140,140,,,,,,,140,B
1,Michael Covington,,M,1969,54,,KS,Raw,M50-54,127.7,140,,,,,,142.5,-147.5,-147.5,142.5,,,,,,,142.5,B
1,Matthew L Wasko,,M,1967,57,,KS,Raw,M55-59,95.8,100,,,,,,-142.5,142.5,-152.5,142.5,,,,,,,142.5,B
1,George Martin,,M,1963,61,,KS,Raw,M60-64,88.8,90,,,,,,125,130,-132.5,130,,,,,,,130,B
1,Kyle Martin,,M,1988,36,,KS,Raw,S35-39,149.2,140+,,,,,,167.5,-175,-175,167.5,,,,,,,167.5,B
1,Dylan Hawkins,,M,1998,25,,MO,Raw,Open,82.2,82.5,,,,,,,,,,,200,215,227.5,227.5,,227.5,D
1,Caleb Chermok,,M,2006,17,,KS,Wraps,J16-17,73,75,157.5,-170,177.5,177.5,,112.5,-120,120,120,,175,185,197.5,197.5,,495,SBD
DQ,Anthony Johanning,,M,2006,17,,KS,Wraps,J16-17,98.9,100,-207.5,-207.5,207.5,207.5,,-137.5,-137.5,-137.5,,,-207.5,207.5,212.5,212.5,,,SBD
1,Lincoln Cook,,M,1995,28,,MO,Wraps,Open,108.6,110,247.5,257.5,-267.5,257.5,,157.5,170,-175,170,,235,255,-260,255,,682.5,SBD
1,Robert Dietrich III,,M,1996,27,,MO,Wraps,Open,117.2,125,295,322.5,327.5,327.5,,175,187.5,192.5,192.5,,290,315,-317.5,315,,835,SBD
