Place,Sex,Name,Event,Division,WeightClassKg,Equipment,State,BodyweightKg,Squat1Kg,Squat2Kg,Squat3Kg,Best3SquatKg,Bench1Kg,Bench2Kg,Bench3Kg,Best3BenchKg,Deadlift1Kg,Deadlift2Kg,Deadlift3Kg,Best3DeadliftKg,TotalKg,BirthYear
1,M,Kevin Locklear,B,MR-M1a,74,Raw,NC,72.4,,,,,132.5,140,142.5,142.5,,,,,142.5,1971
1,M,James Williams #6,B,MR-M2a,83,Raw,NC,81.1,,,,,125,137.5,-140,137.5,,,,,137.5,1961
1,M,Michael Price,B,MR-M2a,120+,Raw,SC,180.3,,,,,192.5,202.5,210,210,,,,,210,1979
1,M,Theopolis Ussery,B,MR-O,66,Raw,NC,64.9,,,,,140,150,155,155,,,,,155,1982
1,M,Todd Talford,B,MR-O,83,Raw,SC,82.1,,,,,190,-197.5,-197.5,190,,,,,190,1990
2,M,James Williams #6,B,MR-O,83,Raw,NC,81.1,,,,,125,137.5,-140,137.5,,,,,137.5,1961
3,M,Ahmed Haviland,B,MR-O,83,Raw,NC,81.3,,,,,125,127.5,-132.5,127.5,,,,,127.5,1995
1,M,Orlando McGriff,B,MR-O,93,Raw,SC,92.8,,,,,175,185,-187.5,185,,,,,185,1989
DQ,M,Quartreal Smith,B,MR-O,93,Raw,SC,92.9,,,,,-190,-190,-190,,,,,,,1979
1,M,Royce Young,B,MR-O,105,Raw,NC,101.3,,,,,155,157.5,160,160,,,,,160,1970
1,M,Michael Price,B,MR-O,120+,Raw,SC,180.3,,,,,192.5,202.5,210,210,,,,,210,1979
2,M,Justin Davis,B,MR-O,120+,Raw,SC,144.7,,,,,187.5,195,202.5,202.5,,,,,202.5,1989
3,M,Dean Hall,B,MR-O,120+,Raw,NC,137.4,,,,,100,125,145,145,,,,,145,1986
4,M,Bill McGraw,B,MR-O,120+,Raw,NC,141.1,,,,,140,-147.5,-147.5,140,,,,,140,1981
1,M,Chandler Caudill,B,MR-T2,83,Raw,NC,82.1,,,,,140,147.5,157.5,157.5,,,,,157.5,1998
1,F,Amy Stevens,B,FR-M1a,84+,Raw,SC,117.5,,,,,62.5,-67.5,67.5,67.5,,,,,67.5,1972
1,F,Kris Kobza,B,FR-M1b,72,Raw,NC,69.4,,,,,72.5,-75,-75,72.5,,,,,72.5,1967
1,F,Tracy Cook,B,FR-M1b,84,Raw,NC,77.1,,,,,60,65,70,70,,,,,70,1970
1,F,Cindy Amatuzzo,B,FR-M2a,84,Raw,NC,79.1,,,,,55,60,62.5,62.5,,,,,62.5,1965
1,F,Kayla Johnson,B,FR-O,52,Raw,NC,51.6,,,,,60,67.5,70,70,,,,,70,1995
2,F,Lindsey Rowland,B,FR-O,52,Raw,NC,49.7,,,,,42.5,52.5,-57.5,52.5,,,,,52.5,1984
1,F,Adrienne Blackwood,B,FR-O,57,Raw,NC,55.1,,,,,50,52.5,55,55,,,,,55,1982
2,F,Jerri Lamar,B,FR-O,57,Raw,NC,56.1,,,,,45,47.5,50,50,,,,,50,1989
1,F,Valerie Sinkler,B,FR-O,63,Raw,SC,61.9,,,,,65,67.5,70,70,,,,,70,1979
1,F,Kris Kobza,B,FR-O,72,Raw,NC,69.4,,,,,72.5,-75,-75,72.5,,,,,72.5,1967
2,F,Meghan Bradsher,B,FR-O,72,Raw,NC,64.6,,,,,55,62.5,-65,62.5,,,,,62.5,1991
3,F,Jenna Petri,B,FR-O,72,Raw,NC,71.6,,,,,42.5,55,-57.5,55,,,,,55,1979
4,F,Sarah Young,B,FR-O,72,Raw,SC,71,,,,,50,-52.5,-52.5,50,,,,,50,1980
1,F,Tracy Cook,B,FR-O,84,Raw,NC,77.1,,,,,60,65,70,70,,,,,70,1970
2,F,Cindy Amatuzzo,B,FR-O,84,Raw,NC,79.1,,,,,55,60,62.5,62.5,,,,,62.5,1965
1,F,Jelissa Conway,B,FR-O,84+,Raw,SC,125.4,,,,,72.5,82.5,90,90,,,,,90,1986
2,F,Amy Stevens,B,FR-O,84+,Raw,SC,117.5,,,,,62.5,-67.5,67.5,67.5,,,,,67.5,1972
DD,M,James Milloway,SBD,MR-M1b,83,Raw,SC,80.5,-160,-175,-182.5,,-110,-130,-145,,-170,-185,-192.5,,,1968
DD,M,Richard Mayes,SBD,MR-M2a,120+,Raw,SC,128.6,-215,-230,-237.5,,-182.5,-187.5,-192.5,,-197.5,-220,-247.5,,,1965
DD,M,Richard Mayes,SBD,MR-O,120+,Raw,SC,128.6,-215,-230,-237.5,,-182.5,-187.5,-192.5,,-197.5,-220,-247.5,,,1965
1,M,Michael Cantrell,SBD,M-M3a,105,Single-ply,SC,100,175,182.5,190,190,122.5,137.5,-142.5,137.5,175,182.5,185,185,512.5,1952
1,M,Doug Ricafrente,SBD,M-M4a,120,Single-ply,SC,106.8,-142.5,-142.5,142.5,142.5,102.5,-107.5,-107.5,102.5,145,-165,165,165,410,1945
1,M,Michael Cantrell,SBD,M-O,105,Single-ply,SC,100,175,182.5,190,190,122.5,137.5,-142.5,137.5,175,182.5,185,185,512.5,1952
1,M,Kevin Locklear,SBD,MR-M1a,74,Raw,NC,72.4,152.5,160,162.5,162.5,132.5,140,142.5,142.5,170,182.5,187.5,187.5,492.5,1971
1,M,Travis Pardue,SBD,MR-M1a,83,Raw,NC,83,182.5,192.5,202.5,202.5,110,120,-125,120,227.5,242.5,257.5,257.5,580,1971
1,M,Thomas Hubscher,SBD,MR-M1a,93,Raw,NC,91.9,220,227.5,232.5,232.5,140,147.5,-150,147.5,227.5,250,-257.5,250,630,1973
2,M,Brian Brookshire,SBD,MR-M1a,93,Raw,NC,91.2,192.5,202.5,207.5,207.5,137.5,142.5,-147.5,142.5,260,275,-280,275,625,1976
DQ,M,David Thornton,SBD,MR-M1a,120+,Raw,NC,129.3,-180,-190,-190,,145,-150,152.5,152.5,237.5,-242.5,245,245,,1974
1,M,John Demchak,SBD,MR-M1b,93,Raw,SC,92.7,182.5,192.5,202.5,202.5,92.5,100,-105,100,215,230,240,240,542.5,1967
1,M,Jay Thompson,SBD,MR-M2a,66,Raw,NC,65.5,165,175,-182.5,175,110,112.5,-115,112.5,200,215,-223,215,502.5,1964
1,M,Billy Tabor,SBD,MR-M2a,83,Raw,SC,81.1,165,170,175,175,117.5,-125,-125,117.5,210,220,227.5,227.5,520,1964
2,M,Keith Johnson,SBD,MR-M2a,83,Raw,NC,75.2,110,117.5,125,125,102.5,105,-107.5,105,185,190,192.5,192.5,422.5,1964
DQ,M,David Connolly,SBD,MR-M2a,93,Raw,NC,89.1,167.5,172.5,180,180,-125,-125,-125,,,,,,,1966
1,M,William Wenk,SBD,MR-M2a,120,Raw,NC,105.5,165,-175,175,175,105,-110,,105,200,-210,,200,480,1961
2,M,Scott Sherrill,SBD,MR-M2a,120+,Raw,NC,120.8,195,210,227.5,227.5,147.5,157.5,165,165,215,235,242.5,242.5,635,1962
1,M,Wes Evans,SBD,MR-M3a,83,Raw,NC,74.7,147.5,155,162.5,162.5,102.5,107.5,,107.5,182.5,187.5,192.5,192.5,462.5,1954
1,M,Glenn Campoli,SBD,MR-M3a,93,Raw,NC,92,90,102.5,110,110,85,-90,-95,85,152.5,157.5,160,160,355,1961
1,M,Casey Miller,SBD,MR-M3a,105,Raw,NC,103.1,157.5,-172.5,172.5,172.5,120,-127.5,-127.5,120,195,212.5,-222.5,212.5,505,1955
1,M,Jay Halprin,SBD,MR-M3b,74,Raw,NC,72.9,-130,-130,130,130,77.5,85,-90,85,162.5,-187.5,,162.5,377.5,1949
1,M,Chase Pernell,SBD,MR-O,66,Raw,NC,65,190,195,200,200,115,125,,125,235,245,-255,245,570,1994
2,M,Theopolis Ussery,SBD,MR-O,66,Raw,NC,64.9,160,165,-170,165,140,150,155,155,220,227.5,-230,227.5,547.5,1982
3,M,Robbie Geyer,SBD,MR-O,66,Raw,,63.6,92.5,100,107.5,107.5,67.5,80,-92.5,80,102.5,122.5,135,135,322.5,1992
1,M,Rodney Alexander,SBD,MR-O,74,Raw,NC,72.5,195,-205,212.5,212.5,130,140,142.5,142.5,215,230,242.5,242.5,597.5,1987
2,M,Myo Thiha,SBD,MR-O,74,Raw,NC,73.1,192.5,205,-215,205,142.5,-152.5,-152.5,142.5,250,-265,-265,250,597.5,1994
3,M,Aaron Stroud #1,SBD,MR-O,74,Raw,NC,70.9,200,215,-227.5,215,122.5,135,142.5,142.5,215,227.5,237.5,237.5,595,1994
4,M,Zachary Henderson,SBD,MR-O,74,Raw,NC,70.3,152.5,155,162.5,162.5,97.5,107.5,110,110,185,187.5,190,190,462.5,1988
5,M,Deron Euland,SBD,MR-O,74,Raw,NC,72.6,125,160,,160,125,-140,-140,125,160,-200,-200,160,445,1988
1,M,Todd Talford,SBD,MR-O,83,Raw,SC,82.1,222.5,230,235,235,190,-197.5,-197.5,190,265,280,-282.5,280,705,1990
2,M,Jake Howerin,SBD,MR-O,83,Raw,SC,79.8,215,227.5,-232.5,227.5,135,-137.5,137.5,137.5,230,240,,240,605,1996
3,M,Danny Steele,SBD,MR-O,83,Raw,NC,82.4,205,-215,-215,205,137.5,-140,,137.5,232.5,250,-272.5,250,592.5,1989
4,M,Travis Pardue,SBD,MR-O,83,Raw,NC,83,182.5,192.5,202.5,202.5,110,120,-125,120,227.5,242.5,257.5,257.5,580,1971
5,M,Israel Peltz,SBD,MR-O,83,Raw,NC,80.1,172.5,187.5,-190,187.5,130,-145,-145,130,217.5,227.5,232.5,232.5,550,1988
6,M,Ahmed Haviland,SBD,MR-O,83,Raw,NC,81.3,185,192.5,200,200,125,127.5,-132.5,127.5,197.5,205,212.5,212.5,540,1995
7,M,Caleb Johnson #5,SBD,MR-O,83,Raw,NC,79.4,160,167.5,175,175,117.5,122.5,125,125,185,192.5,200,200,500,1993
1,M,Orlando McGriff,SBD,MR-O,93,Raw,SC,92.8,232.5,242.5,-250,242.5,175,185,-187.5,185,237.5,255,-257.5,255,682.5,1989
2,M,Matt Koe,SBD,MR-O,93,Raw,NC,90.1,217.5,237.5,252.5,252.5,145,-162.5,162.5,162.5,230,257.5,-267.5,257.5,672.5,1996
3,M,Thomas Hubscher,SBD,MR-O,93,Raw,NC,91.9,220,227.5,232.5,232.5,140,147.5,-150,147.5,227.5,250,-257.5,250,630,1973
4,M,Brian Brookshire,SBD,MR-O,93,Raw,NC,91.2,192.5,202.5,207.5,207.5,137.5,142.5,-147.5,142.5,260,275,-280,275,625,1976
5,M,Logan Krieger,SBD,MR-O,93,Raw,SC,91.9,200,215,-227.5,215,130,-137.5,-137.5,130,247.5,260,-272.5,260,605,1987
6,M,Adam McGugan,SBD,MR-O,93,Raw,SC,90,187.5,205,220,220,127.5,-132.5,132.5,132.5,-225,235,245,245,597.5,1983
7,M,Max Lepage,SBD,MR-O,93,Raw,SC,92,195,210,220,220,135,142.5,-150,142.5,210,222.5,230,230,592.5,1995
8,M,Raymond Maccio,SBD,MR-O,93,Raw,SC,89.1,205,217.5,227.5,227.5,120,130,137.5,137.5,197.5,212.5,225,225,590,1994
9,M,John Demchak,SBD,MR-O,93,Raw,SC,92.7,182.5,192.5,202.5,202.5,92.5,100,-105,100,215,230,240,240,542.5,1967
10,M,Nicholas Boleto,SBD,MR-O,93,Raw,SC,92.8,162.5,167.5,170,170,112.5,117.5,120,120,215,227.5,240,240,530,1994
11,M,Matt Reece,SBD,MR-O,93,Raw,SC,92.7,165,175,187.5,187.5,102.5,110,-122.5,110,185,205,-227.5,205,502.5,1996
12,M,Neal Benefield,SBD,MR-O,93,Raw,NC,91.5,150,167.5,177.5,177.5,95,102.5,-110,102.5,187.5,210,215,215,495,1977
13,M,William Interiano,SBD,MR-O,93,Raw,SC,87.8,152.5,165,182.5,182.5,110,-120,-120,110,190,195,-207.5,195,487.5,1995
14,M,Shawn Ahuja,SBD,MR-O,93,Raw,NC,85.1,115,-125,142.5,142.5,102.5,107.5,-112.5,107.5,212.5,230,235,235,485,1996
15,M,Glenn Campoli,SBD,MR-O,93,Raw,NC,92,90,102.5,110,110,85,-90,-95,85,152.5,157.5,160,160,355,1961
DQ,M,David Connolly,SBD,MR-O,93,Raw,NC,89.1,167.5,172.5,180,180,-125,-125,-125,,,,,,,1966
1,M,Justin Miles,SBD,MR-O,105,Raw,NC,97.1,192.5,205,210,210,127.5,132.5,135,135,227.5,237.5,-245,237.5,582.5,1986
1,M,Michael McCoy,SBD,MR-O,120,Raw,NC,113.6,240,257.5,265,265,175,190,-195,190,275,292.5,310,310,765,1991
2,M,Shane Bushman,SBD,MR-O,120,Raw,SC,119,230,-242.5,242.5,242.5,160,172.5,-182.5,172.5,252.5,267.5,275,275,690,1982
3,M,Ethan McElroy,SBD,MR-O,120,Raw,NC,118.8,137.5,155,165,165,-120,125,-137.5,125,192.5,-215,217.5,217.5,507.5,1993
1,M,Justin Davis,SBD,MR-O,120+,Raw,SC,144.7,257.5,272.5,287.5,287.5,187.5,195,202.5,202.5,305,317.5,327.5,327.5,817.5,1989
2,M,David Billings,SBD,MR-O,120+,Raw,NC,120.3,235,240,245,245,152.5,160,165,165,265,272.5,277.5,277.5,687.5,1986
4,M,Bill McGraw,SBD,MR-O,120+,Raw,NC,141.1,-182.5,190,200,200,140,-147.5,-147.5,140,187.5,197.5,-207.5,197.5,537.5,1981
5,M,Dean Hall,SBD,MR-O,120+,Raw,NC,137.4,100,122.5,142.5,142.5,100,125,145,145,102.5,127.5,147.5,147.5,435,1986
1,M,Carson McAbee,SBD,MR-T2,74,Raw,NC,72.7,150,165,172.5,172.5,77.5,-85,85,85,170,185,-197.5,185,442.5,1999
1,M,Chandler Caudill,SBD,MR-T2,83,Raw,NC,82.1,190,200,210,210,140,147.5,157.5,157.5,200,217.5,225,225,592.5,1998
1,M,Austin Brown #1,SBD,MR-T2,120+,Raw,NC,132.4,-215,215,230,230,125,127.5,137.5,137.5,200,210,227.5,227.5,595,1990
2,M,Clayton Ricafrente,SBD,MR-T2,120+,Raw,SC,130.9,145,152.5,160,160,95,97.5,102.5,102.5,182.5,200,-210,200,462.5,1999
1,M,Jake Howerin,SBD,MR-T3,83,Raw,SC,79.8,215,227.5,-232.5,227.5,135,-137.5,137.5,137.5,230,240,,240,605,1996
1,M,Shawn Ahuja,SBD,MR-T3,93,Raw,NC,85.1,115,-125,142.5,142.5,102.5,107.5,-112.5,107.5,212.5,230,235,235,485,1996
1,M,William Wallace #3,SBD,MR-T3,120+,Raw,NC,120.2,182.5,195,-202.5,195,117.5,-120,,117.5,187.5,,,187.5,500,1998
1,F,Amy Mason,SBD,FR-M1a,72,Raw,NC,66.1,102.5,-115,115,115,50,57.5,60,60,105,115,130,130,305,1976
2,F,Virginia Edwards,SBD,FR-M1a,72,Raw,NC,71.3,-82.5,82.5,-90,82.5,37.5,42.5,-47.5,42.5,87.5,100,110,110,235,1975
1,F,Allison Snead,SBD,FR-M1a,84+,Raw,NC,95.6,-175,175,-182.5,175,82.5,87.5,-90,87.5,175,185,195,195,457.5,1975
2,F,Amy Stevens,SBD,FR-M1a,84+,Raw,SC,117.5,80,87.5,92.5,92.5,62.5,-67.5,67.5,67.5,97.5,105,-112.5,105,265,1972
1,F,Kelly Tabor,SBD,FR-M1b,72,Raw,SC,69.9,82.5,90,102.5,102.5,40,45,-50,45,122.5,127.5,-132.5,127.5,275,1970
1,F,Tracy Cook,SBD,FR-M1b,84,Raw,NC,77.1,92.5,102.5,107.5,107.5,60,65,70,70,125,137.5,145,145,322.5,1970
2,F,Tomika Baldwin,SBD,FR-M1b,84,Raw,NC,77.6,82.5,-102.5,102.5,102.5,60,-62.5,-62.5,60,125,137.5,145,145,307.5,1970
1,F,Cindy Amatuzzo,SBD,FR-M2a,84,Raw,NC,79.1,80,90,95,95,55,60,62.5,62.5,100,107.5,112.5,112.5,270,1965
2,F,Barbara Woolard,SBD,FR-M2a,84,Raw,NC,79.8,75,82.5,-87.5,82.5,-45,45,47.5,47.5,122.5,125,130,130,260,1962
1,F,Kayla Johnson,SBD,FR-O,52,Raw,NC,51.6,100,105,-110,105,60,67.5,70,70,110,117.5,120,120,295,1995
2,F,Lindsey Rowland,SBD,FR-O,52,Raw,NC,49.7,57.5,67.5,75,75,42.5,52.5,-57.5,52.5,85,92.5,100,100,227.5,1984
3,F,Claire Thomson,SBD,FR-O,52,Raw,NC,49.7,62.5,70,-77.5,70,30,35,40,40,90,102.5,-110,102.5,212.5,1992
1,F,Akela McClary,SBD,FR-O,57,Raw,SC,56,100,105,-107.5,105,45,47.5,50,50,120,127.5,132.5,132.5,287.5,1991
2,F,Adrienne Blackwood,SBD,FR-O,57,Raw,NC,55.1,87.5,95,97.5,97.5,50,52.5,55,55,112.5,125,127.5,127.5,280,1982
3,F,Devon Miles #1,SBD,FR-O,57,Raw,NC,55.5,77.5,82.5,-87.5,82.5,45,47.5,50,50,97.5,102.5,107.5,107.5,240,1989
1,F,Lauren Rutan,SBD,FR-O,63,Raw,SC,58.9,137.5,142.5,147.5,147.5,80,85,-87.5,85,145,155,-157.5,155,387.5,1984
2,F,Valerie Sinkler,SBD,FR-O,63,Raw,SC,61.9,92.5,100,105,105,65,67.5,70,70,127.5,140,145,145,320,1979
3,F,Hannah Thrower,SBD,FR-O,63,Raw,NC,61.6,87.5,97.5,-105,97.5,45,52.5,-57.5,52.5,125,145,160,160,310,1989
4,F,Amanda Bradford,SBD,FR-O,63,Raw,NC,62.8,87.5,97.5,-107.5,97.5,45,-52.5,57.5,57.5,110,132.5,142.5,142.5,297.5,1977
5,F,Megan Griffith,SBD,FR-O,63,Raw,NC,62.8,-62.5,67.5,-80,67.5,62.5,67.5,-72.5,67.5,115,125,-137.5,125,260,1979
6,F,Tiffany Youker,SBD,FR-O,63,Raw,VA,61.3,77.5,85,87.5,87.5,42.5,45,47.5,47.5,97.5,-107.5,107.5,107.5,242.5,1992
DQ,F,April Purvis,SBD,FR-O,63,Raw,NC,61.3,117.5,-125,125,125,57.5,62.5,65,65,-140,-140,-140,,,1996
1,F,Maura McCarthy,SBD,FR-O,72,Raw,NC,71,115,125,130,130,60,65,67.5,67.5,125,137.5,145,145,342.5,1990
2,F,Jenna Petri,SBD,FR-O,72,Raw,NC,71.6,-112.5,-120,120,120,42.5,55,-57.5,55,142.5,157.5,-162.5,157.5,332.5,1979
3,F,Jessica Kruh,SBD,FR-O,72,Raw,NC,68.2,102.5,110,115,115,65,70,72.5,72.5,127.5,137.5,142.5,142.5,330,1994
4,F,Meghan Bradsher,SBD,FR-O,72,Raw,NC,64.6,102.5,110,117.5,117.5,55,62.5,-65,62.5,120,130,132.5,132.5,312.5,1991
5,F,Sarah Young,SBD,FR-O,72,Raw,SC,71,97.5,-102.5,-102.5,97.5,50,-52.5,-52.5,50,115,120,122.5,122.5,270,1980
6,F,Amy Purser,SBD,FR-O,72,Raw,NC,70.8,62.5,-67.5,-77.5,62.5,42.5,45,-50,45,92.5,102.5,110,110,217.5,1982
1,F,Tracy Cook,SBD,FR-O,84,Raw,NC,77.1,92.5,102.5,107.5,107.5,60,65,70,70,125,137.5,145,145,322.5,1970
2,F,Alex Cassella,SBD,FR-O,84,Raw,NC,72.2,-105,-107.5,107.5,107.5,67.5,70,-75,70,132.5,135,142.5,142.5,320,1992
3,F,Laura Magruder,SBD,FR-O,84,Raw,NC,75.3,110,122.5,132.5,132.5,-47.5,47.5,-52.5,47.5,-105,115,127.5,127.5,307.5,1991
4,F,Tomika Baldwin,SBD,FR-O,84,Raw,NC,77.6,82.5,-102.5,102.5,102.5,60,-62.5,-62.5,60,125,137.5,145,145,307.5,1970
5,F,Jordan Gomez,SBD,FR-O,84,Raw,NC,83.3,85,-95,97.5,97.5,62.5,-67.5,67.5,67.5,117.5,-125,-137.5,117.5,282.5,1992
6,F,Cindy Amatuzzo,SBD,FR-O,84,Raw,NC,79.1,80,90,95,95,55,60,62.5,62.5,100,107.5,112.5,112.5,270,1965
7,F,Barbara Woolard,SBD,FR-O,84,Raw,NC,79.8,75,82.5,-87.5,82.5,-45,45,47.5,47.5,122.5,125,130,130,260,1962
DQ,F,Megan Conley,SBD,FR-O,84,Raw,NC,82.5,-52.5,52.5,62.5,62.5,-52.5,-55,-55,,105,112.5,122.5,122.5,,1980
1,F,Jelissa Conway,SBD,FR-O,84+,Raw,SC,125.4,152.5,185,-190,185,72.5,82.5,90,90,147.5,165,185,185,460,1986
2,F,Allison Snead,SBD,FR-O,84+,Raw,NC,95.6,-175,175,-182.5,175,82.5,87.5,-90,87.5,175,185,195,195,457.5,1975
3,F,Vicky Lehman,SBD,FR-O,84+,Raw,NC,95.4,130,140,145,145,65,67.5,-70,67.5,142.5,147.5,152.5,152.5,365,1982
4,F,Jacqueline Johnson,SBD,FR-O,84+,Raw,NC,93.9,82.5,100,102.5,102.5,62.5,65,67.5,67.5,130,142.5,145,145,315,1978
5,F,Amy Stevens,SBD,FR-O,84+,Raw,SC,117.5,80,87.5,92.5,92.5,62.5,-67.5,67.5,67.5,97.5,105,-112.5,105,265,1972
1,F,Kyra Whitlock,SBD,FR-T2,72,Raw,,64.2,65,,,65,30,,,30,75,,,75,170,1999
DQ,F,April Purvis,SBD,FR-T3,63,Raw,NC,61.3,117.5,-125,125,125,57.5,62.5,65,65,-140,-140,-140,,,1996
